init genome: "{"id":1,"name":"genome1","genes":null,"geneInteractions":null}"
init gene: "{"id":"100001","name":"gene100001"}"
init gene: "{"id":"100002","name":"gene100002"}"
init gene: "{"id":"100003","name":"gene100003"}"
init gene: "{"id":"100004","name":"gene100004"}"
init gene: "{"id":"100005","name":"gene100005"}"
init gene: "{"id":"100006","name":"gene100006"}"
init gene: "{"id":"100007","name":"gene100007"}"
init gene: "{"id":"100008","name":"gene100008"}"
init gene: "{"id":"100009","name":"gene100009"}"
init gene: "{"id":"100010","name":"gene100010"}"
init gene: "{"id":"100011","name":"gene100011"}"
init gene: "{"id":"100012","name":"gene100012"}"
init gene: "{"id":"100013","name":"gene100013"}"
init gene: "{"id":"100014","name":"gene100014"}"
init gene: "{"id":"100015","name":"gene100015"}"
init gene: "{"id":"100016","name":"gene100016"}"
init gene: "{"id":"100017","name":"gene100017"}"
init gene: "{"id":"100018","name":"gene100018"}"
init gene: "{"id":"100019","name":"gene100019"}"
init gene: "{"id":"100020","name":"gene100020"}"
init gene: "{"id":"100021","name":"gene100021"}"
init gene: "{"id":"100022","name":"gene100022"}"
init gene: "{"id":"100023","name":"gene100023"}"
init gene: "{"id":"100024","name":"gene100024"}"
init gene: "{"id":"100025","name":"gene100025"}"
init gene: "{"id":"100026","name":"gene100026"}"
init gene: "{"id":"100027","name":"gene100027"}"
init gene: "{"id":"100028","name":"gene100028"}"
init gene: "{"id":"100029","name":"gene100029"}"
init gene: "{"id":"100030","name":"gene100030"}"
init gene: "{"id":"100031","name":"gene100031"}"
init gene: "{"id":"100032","name":"gene100032"}"
init gene: "{"id":"100033","name":"gene100033"}"
init gene: "{"id":"100034","name":"gene100034"}"
init gene: "{"id":"100035","name":"gene100035"}"
init gene: "{"id":"100036","name":"gene100036"}"
init gene: "{"id":"100037","name":"gene100037"}"
init gene: "{"id":"100038","name":"gene100038"}"
init gene: "{"id":"100039","name":"gene100039"}"
init gene: "{"id":"100040","name":"gene100040"}"
init gene: "{"id":"100041","name":"gene100041"}"
init gene: "{"id":"100042","name":"gene100042"}"
init gene: "{"id":"100043","name":"gene100043"}"
init gene: "{"id":"100044","name":"gene100044"}"
init gene: "{"id":"100045","name":"gene100045"}"
init gene: "{"id":"100046","name":"gene100046"}"
init gene: "{"id":"100047","name":"gene100047"}"
init gene: "{"id":"100048","name":"gene100048"}"
init gene: "{"id":"100049","name":"gene100049"}"
init gene: "{"id":"100050","name":"gene100050"}"
init interaction: {"id":100047001,"name":"interaction100047001","source":"100047","target":"100042","weight":0}
init interaction: {"id":100047002,"name":"interaction100047002","source":"100047","target":"100011","weight":0}
init interaction: {"id":100047003,"name":"interaction100047003","source":"100047","target":"100023","weight":0}
init interaction: {"id":100039001,"name":"interaction100039001","source":"100039","target":"100015","weight":0}
init interaction: {"id":100039002,"name":"interaction100039002","source":"100039","target":"100023","weight":0}
init interaction: {"id":100039003,"name":"interaction100039003","source":"100039","target":"100045","weight":0}
init interaction: {"id":100048001,"name":"interaction100048001","source":"100048","target":"100040","weight":0}
init interaction: {"id":100048002,"name":"interaction100048002","source":"100048","target":"100023","weight":0}
init interaction: {"id":100048003,"name":"interaction100048003","source":"100048","target":"100001","weight":0}
init interaction: {"id":100012001,"name":"interaction100012001","source":"100012","target":"100029","weight":0}
init interaction: {"id":100012002,"name":"interaction100012002","source":"100012","target":"100025","weight":0}
init interaction: {"id":100012003,"name":"interaction100012003","source":"100012","target":"100020","weight":0}
init interaction: {"id":100037001,"name":"interaction100037001","source":"100037","target":"100008","weight":0}
init interaction: {"id":100037002,"name":"interaction100037002","source":"100037","target":"100009","weight":0}
init interaction: {"id":100037003,"name":"interaction100037003","source":"100037","target":"100041","weight":0}
init interaction: {"id":100007001,"name":"interaction100007001","source":"100007","target":"100037","weight":0}
init interaction: {"id":100007002,"name":"interaction100007002","source":"100007","target":"100020","weight":0}
init interaction: {"id":100007003,"name":"interaction100007003","source":"100007","target":"100036","weight":0}
init interaction: {"id":100005001,"name":"interaction100005001","source":"100005","target":"100012","weight":0}
init interaction: {"id":100005002,"name":"interaction100005002","source":"100005","target":"100001","weight":0}
init interaction: {"id":100005003,"name":"interaction100005003","source":"100005","target":"100037","weight":0}
init interaction: {"id":100016001,"name":"interaction100016001","source":"100016","target":"100033","weight":0}
init interaction: {"id":100016002,"name":"interaction100016002","source":"100016","target":"100003","weight":0}
init interaction: {"id":100016003,"name":"interaction100016003","source":"100016","target":"100002","weight":0}
init interaction: {"id":100002001,"name":"interaction100002001","source":"100002","target":"100015","weight":0}
init interaction: {"id":100002002,"name":"interaction100002002","source":"100002","target":"100041","weight":0}
init interaction: {"id":100002003,"name":"interaction100002003","source":"100002","target":"100026","weight":0}
init interaction: {"id":100038001,"name":"interaction100038001","source":"100038","target":"100045","weight":0}
init interaction: {"id":100038002,"name":"interaction100038002","source":"100038","target":"100039","weight":0}
init interaction: {"id":100038003,"name":"interaction100038003","source":"100038","target":"100009","weight":0}
init interaction: {"id":100020001,"name":"interaction100020001","source":"100020","target":"100014","weight":0}
init interaction: {"id":100020002,"name":"interaction100020002","source":"100020","target":"100010","weight":0}
init interaction: {"id":100020003,"name":"interaction100020003","source":"100020","target":"100015","weight":0}
init interaction: {"id":100033001,"name":"interaction100033001","source":"100033","target":"100016","weight":0}
init interaction: {"id":100033002,"name":"interaction100033002","source":"100033","target":"100027","weight":0}
init interaction: {"id":100033003,"name":"interaction100033003","source":"100033","target":"100001","weight":0}
init interaction: {"id":100001001,"name":"interaction100001001","source":"100001","target":"100006","weight":0}
init interaction: {"id":100001002,"name":"interaction100001002","source":"100001","target":"100019","weight":0}
init interaction: {"id":100001003,"name":"interaction100001003","source":"100001","target":"100003","weight":0}
init interaction: {"id":100025001,"name":"interaction100025001","source":"100025","target":"100040","weight":0}
init interaction: {"id":100025002,"name":"interaction100025002","source":"100025","target":"100008","weight":0}
init interaction: {"id":100025003,"name":"interaction100025003","source":"100025","target":"100018","weight":0}
init interaction: {"id":100035001,"name":"interaction100035001","source":"100035","target":"100017","weight":0}
init interaction: {"id":100035002,"name":"interaction100035002","source":"100035","target":"100036","weight":0}
init interaction: {"id":100035003,"name":"interaction100035003","source":"100035","target":"100007","weight":0}
init interaction: {"id":100041001,"name":"interaction100041001","source":"100041","target":"100019","weight":0}
init interaction: {"id":100041002,"name":"interaction100041002","source":"100041","target":"100034","weight":0}
init interaction: {"id":100041003,"name":"interaction100041003","source":"100041","target":"100015","weight":0}
init interaction: {"id":100036001,"name":"interaction100036001","source":"100036","target":"100008","weight":0}
init interaction: {"id":100036002,"name":"interaction100036002","source":"100036","target":"100019","weight":0}
init interaction: {"id":100036003,"name":"interaction100036003","source":"100036","target":"100011","weight":0}
init interaction: {"id":100013001,"name":"interaction100013001","source":"100013","target":"100032","weight":0}
init interaction: {"id":100013002,"name":"interaction100013002","source":"100013","target":"100032","weight":0}
init interaction: {"id":100013003,"name":"interaction100013003","source":"100013","target":"100024","weight":0}
init interaction: {"id":100017001,"name":"interaction100017001","source":"100017","target":"100015","weight":0}
init interaction: {"id":100017002,"name":"interaction100017002","source":"100017","target":"100047","weight":0}
init interaction: {"id":100017003,"name":"interaction100017003","source":"100017","target":"100040","weight":0}
init interaction: {"id":100034001,"name":"interaction100034001","source":"100034","target":"100035","weight":0}
init interaction: {"id":100034002,"name":"interaction100034002","source":"100034","target":"100042","weight":0}
init interaction: {"id":100034003,"name":"interaction100034003","source":"100034","target":"100027","weight":0}
init interaction: {"id":100040001,"name":"interaction100040001","source":"100040","target":"100025","weight":0}
init interaction: {"id":100040002,"name":"interaction100040002","source":"100040","target":"100031","weight":0}
init interaction: {"id":100040003,"name":"interaction100040003","source":"100040","target":"100027","weight":0}
init interaction: {"id":100026001,"name":"interaction100026001","source":"100026","target":"100042","weight":0}
init interaction: {"id":100026002,"name":"interaction100026002","source":"100026","target":"100049","weight":0}
init interaction: {"id":100026003,"name":"interaction100026003","source":"100026","target":"100037","weight":0}
init interaction: {"id":100014001,"name":"interaction100014001","source":"100014","target":"100020","weight":0}
init interaction: {"id":100014002,"name":"interaction100014002","source":"100014","target":"100007","weight":0}
init interaction: {"id":100014003,"name":"interaction100014003","source":"100014","target":"100043","weight":0}
init interaction: {"id":100006001,"name":"interaction100006001","source":"100006","target":"100048","weight":0}
init interaction: {"id":100006002,"name":"interaction100006002","source":"100006","target":"100035","weight":0}
init interaction: {"id":100006003,"name":"interaction100006003","source":"100006","target":"100034","weight":0}
init interaction: {"id":100015001,"name":"interaction100015001","source":"100015","target":"100038","weight":0}
init interaction: {"id":100015002,"name":"interaction100015002","source":"100015","target":"100017","weight":0}
init interaction: {"id":100015003,"name":"interaction100015003","source":"100015","target":"100026","weight":0}
init interaction: {"id":100042001,"name":"interaction100042001","source":"100042","target":"100002","weight":0}
init interaction: {"id":100042002,"name":"interaction100042002","source":"100042","target":"100030","weight":0}
init interaction: {"id":100042003,"name":"interaction100042003","source":"100042","target":"100043","weight":0}
init interaction: {"id":100022001,"name":"interaction100022001","source":"100022","target":"100038","weight":0}
init interaction: {"id":100022002,"name":"interaction100022002","source":"100022","target":"100002","weight":0}
init interaction: {"id":100022003,"name":"interaction100022003","source":"100022","target":"100034","weight":0}
init interaction: {"id":100031001,"name":"interaction100031001","source":"100031","target":"100003","weight":0}
init interaction: {"id":100031002,"name":"interaction100031002","source":"100031","target":"100034","weight":0}
init interaction: {"id":100031003,"name":"interaction100031003","source":"100031","target":"100019","weight":0}
init interaction: {"id":100028001,"name":"interaction100028001","source":"100028","target":"100011","weight":0}
init interaction: {"id":100028002,"name":"interaction100028002","source":"100028","target":"100012","weight":0}
init interaction: {"id":100028003,"name":"interaction100028003","source":"100028","target":"100043","weight":0}
init interaction: {"id":100004001,"name":"interaction100004001","source":"100004","target":"100042","weight":0}
init interaction: {"id":100004002,"name":"interaction100004002","source":"100004","target":"100022","weight":0}
init interaction: {"id":100004003,"name":"interaction100004003","source":"100004","target":"100037","weight":0}
init interaction: {"id":100011001,"name":"interaction100011001","source":"100011","target":"100015","weight":0}
init interaction: {"id":100011002,"name":"interaction100011002","source":"100011","target":"100003","weight":0}
init interaction: {"id":100011003,"name":"interaction100011003","source":"100011","target":"100010","weight":0}
init interaction: {"id":100032001,"name":"interaction100032001","source":"100032","target":"100010","weight":0}
init interaction: {"id":100032002,"name":"interaction100032002","source":"100032","target":"100016","weight":0}
init interaction: {"id":100032003,"name":"interaction100032003","source":"100032","target":"100035","weight":0}
init interaction: {"id":100023001,"name":"interaction100023001","source":"100023","target":"100004","weight":0}
init interaction: {"id":100023002,"name":"interaction100023002","source":"100023","target":"100025","weight":0}
init interaction: {"id":100023003,"name":"interaction100023003","source":"100023","target":"100045","weight":0}
init interaction: {"id":100044001,"name":"interaction100044001","source":"100044","target":"100034","weight":0}
init interaction: {"id":100044002,"name":"interaction100044002","source":"100044","target":"100006","weight":0}
init interaction: {"id":100044003,"name":"interaction100044003","source":"100044","target":"100010","weight":0}
init interaction: {"id":100050001,"name":"interaction100050001","source":"100050","target":"100045","weight":0}
init interaction: {"id":100050002,"name":"interaction100050002","source":"100050","target":"100016","weight":0}
init interaction: {"id":100050003,"name":"interaction100050003","source":"100050","target":"100029","weight":0}
init interaction: {"id":100018001,"name":"interaction100018001","source":"100018","target":"100007","weight":0}
init interaction: {"id":100018002,"name":"interaction100018002","source":"100018","target":"100048","weight":0}
init interaction: {"id":100018003,"name":"interaction100018003","source":"100018","target":"100006","weight":0}
init interaction: {"id":100019001,"name":"interaction100019001","source":"100019","target":"100002","weight":0}
init interaction: {"id":100019002,"name":"interaction100019002","source":"100019","target":"100014","weight":0}
init interaction: {"id":100019003,"name":"interaction100019003","source":"100019","target":"100018","weight":0}
init interaction: {"id":100027001,"name":"interaction100027001","source":"100027","target":"100014","weight":0}
init interaction: {"id":100027002,"name":"interaction100027002","source":"100027","target":"100040","weight":0}
init interaction: {"id":100027003,"name":"interaction100027003","source":"100027","target":"100018","weight":0}
init interaction: {"id":100024001,"name":"interaction100024001","source":"100024","target":"100017","weight":0}
init interaction: {"id":100024002,"name":"interaction100024002","source":"100024","target":"100043","weight":0}
init interaction: {"id":100024003,"name":"interaction100024003","source":"100024","target":"100006","weight":0}
init interaction: {"id":100029001,"name":"interaction100029001","source":"100029","target":"100006","weight":0}
init interaction: {"id":100029002,"name":"interaction100029002","source":"100029","target":"100023","weight":0}
init interaction: {"id":100029003,"name":"interaction100029003","source":"100029","target":"100004","weight":0}
init interaction: {"id":100008001,"name":"interaction100008001","source":"100008","target":"100032","weight":0}
init interaction: {"id":100008002,"name":"interaction100008002","source":"100008","target":"100048","weight":0}
init interaction: {"id":100008003,"name":"interaction100008003","source":"100008","target":"100020","weight":0}
init interaction: {"id":100009001,"name":"interaction100009001","source":"100009","target":"100031","weight":0}
init interaction: {"id":100009002,"name":"interaction100009002","source":"100009","target":"100043","weight":0}
init interaction: {"id":100009003,"name":"interaction100009003","source":"100009","target":"100033","weight":0}
init interaction: {"id":100046001,"name":"interaction100046001","source":"100046","target":"100034","weight":0}
init interaction: {"id":100046002,"name":"interaction100046002","source":"100046","target":"100010","weight":0}
init interaction: {"id":100046003,"name":"interaction100046003","source":"100046","target":"100029","weight":0}
init interaction: {"id":100021001,"name":"interaction100021001","source":"100021","target":"100047","weight":0}
init interaction: {"id":100021002,"name":"interaction100021002","source":"100021","target":"100002","weight":0}
init interaction: {"id":100021003,"name":"interaction100021003","source":"100021","target":"100033","weight":0}
init interaction: {"id":100010001,"name":"interaction100010001","source":"100010","target":"100004","weight":0}
init interaction: {"id":100010002,"name":"interaction100010002","source":"100010","target":"100005","weight":0}
init interaction: {"id":100010003,"name":"interaction100010003","source":"100010","target":"100017","weight":0}
init interaction: {"id":100043001,"name":"interaction100043001","source":"100043","target":"100011","weight":0}
init interaction: {"id":100043002,"name":"interaction100043002","source":"100043","target":"100039","weight":0}
init interaction: {"id":100043003,"name":"interaction100043003","source":"100043","target":"100042","weight":0}
init interaction: {"id":100045001,"name":"interaction100045001","source":"100045","target":"100013","weight":0}
init interaction: {"id":100045002,"name":"interaction100045002","source":"100045","target":"100008","weight":0}
init interaction: {"id":100045003,"name":"interaction100045003","source":"100045","target":"100040","weight":0}
init interaction: {"id":100030001,"name":"interaction100030001","source":"100030","target":"100019","weight":0}
init interaction: {"id":100030002,"name":"interaction100030002","source":"100030","target":"100044","weight":0}
init interaction: {"id":100030003,"name":"interaction100030003","source":"100030","target":"100045","weight":0}
init interaction: {"id":100003001,"name":"interaction100003001","source":"100003","target":"100013","weight":0}
init interaction: {"id":100003002,"name":"interaction100003002","source":"100003","target":"100015","weight":0}
init interaction: {"id":100003003,"name":"interaction100003003","source":"100003","target":"100035","weight":0}
init interaction: {"id":100049001,"name":"interaction100049001","source":"100049","target":"100010","weight":0}
init interaction: {"id":100049002,"name":"interaction100049002","source":"100049","target":"100007","weight":0}
init interaction: {"id":100049003,"name":"interaction100049003","source":"100049","target":"100033","weight":0}